%YAML 1.1
%TAG !u! tag:unity3d.com,2011:
--- !u!21 &2100000
Material:
  serializedVersion: 6
  m_ObjectHideFlags: 0
  m_PrefabParentObject: {fileID: 0}
  m_PrefabInternal: {fileID: 0}
  m_Name: Scooters5
  m_Shader: {fileID: 4800000, guid: 9aa93289d4310914ab6adfa612cec257, type: 3}
  m_ShaderKeywords: _NORMALMAP
  m_LightmapFlags: 5
  m_CustomRenderQueue: 2000
  stringTagMap: {}
  m_SavedProperties:
    serializedVersion: 2
    m_TexEnvs:
      data:
        first:
          name: _MainTex
        second:
          m_Texture: {fileID: 2800000, guid: 36097476b02264f16abd2e8fed97d9d5, type: 3}
          m_Scale: {x: 1, y: 1}
          m_Offset: {x: 0, y: 0}
      data:
        first:
          name: _BumpMap
        second:
          m_Texture: {fileID: 0}
          m_Scale: {x: 1, y: 1}
          m_Offset: {x: 0, y: 0}
      data:
        first:
          name: _DetailNormalMap
        second:
          m_Texture: {fileID: 0}
          m_Scale: {x: 1, y: 1}
          m_Offset: {x: 0, y: 0}
      data:
        first:
          name: _ParallaxMap
        second:
          m_Texture: {fileID: 0}
          m_Scale: {x: 1, y: 1}
          m_Offset: {x: 0, y: 0}
      data:
        first:
          name: _OcclusionMap
        second:
          m_Texture: {fileID: 0}
          m_Scale: {x: 1, y: 1}
          m_Offset: {x: 0, y: 0}
      data:
        first:
          name: _EmissionMap
        second:
          m_Texture: {fileID: 0}
          m_Scale: {x: 1, y: 1}
          m_Offset: {x: 0, y: 0}
      data:
        first:
          name: _DetailMask
        second:
          m_Texture: {fileID: 0}
          m_Scale: {x: 1, y: 1}
          m_Offset: {x: 0, y: 0}
      data:
        first:
          name: _DetailAlbedoMap
        second:
          m_Texture: {fileID: 0}
          m_Scale: {x: 1, y: 1}
          m_Offset: {x: 0, y: 0}
      data:
        first:
          name: _MetallicGlossMap
        second:
          m_Texture: {fileID: 0}
          m_Scale: {x: 1, y: 1}
          m_Offset: {x: 0, y: 0}
      data:
        first:
          name: _V_CW_IBL_Cube
        second:
          m_Texture: {fileID: 0}
          m_Scale: {x: 1, y: 1}
          m_Offset: {x: 0, y: 0}
      data:
        first:
          name: _V_CW_Cube
        second:
          m_Texture: {fileID: 0}
          m_Scale: {x: 1, y: 1}
          m_Offset: {x: 0, y: 0}
      data:
        first:
          name: _V_CW_NormalMap
        second:
          m_Texture: {fileID: 2800000, guid: 8942ab391a3bf4a2397c5af192adacac, type: 3}
          m_Scale: {x: 1, y: 1}
          m_Offset: {x: 0, y: 0}
      data:
        first:
          name: _V_CW_SecondaryNormalMap
        second:
          m_Texture: {fileID: 0}
          m_Scale: {x: 1, y: 1}
          m_Offset: {x: 0, y: 0}
      data:
        first:
          name: _V_CW_Specular_Lookup
        second:
          m_Texture: {fileID: 0}
          m_Scale: {x: 1, y: 1}
          m_Offset: {x: 0, y: 0}
      data:
        first:
          name: _V_CW_LightRampTex
        second:
          m_Texture: {fileID: 0}
          m_Scale: {x: 1, y: 1}
          m_Offset: {x: 0, y: 0}
    m_Floats:
      data:
        first:
          name: _SrcBlend
        second: 1
      data:
        first:
          name: _DstBlend
        second: 0
      data:
        first:
          name: _Cutoff
        second: 0.5
      data:
        first:
          name: _Parallax
        second: 0.02
      data:
        first:
          name: _ZWrite
        second: 1
      data:
        first:
          name: _Glossiness
        second: 0.5
      data:
        first:
          name: _BumpScale
        second: 1
      data:
        first:
          name: _OcclusionStrength
        second: 1
      data:
        first:
          name: _DetailNormalMapScale
        second: 1
      data:
        first:
          name: _UVSec
        second: 0
      data:
        first:
          name: _Mode
        second: 0
      data:
        first:
          name: _Metallic
        second: 0
      data:
        first:
          name: V_CW_Label_Tag
        second: 0
      data:
        first:
          name: V_CW_Label_UnityDefaults
        second: 0
      data:
        first:
          name: V_CW_Label_Modes
        second: 0
      data:
        first:
          name: V_CW_Rendering_Mode
        second: 0
      data:
        first:
          name: V_CW_Texture_Mix_Mode
        second: 0
      data:
        first:
          name: V_CW_Label_Albedo
        second: 0
      data:
        first:
          name: _V_CW_Rim_Bias
        second: 0.2
      data:
        first:
          name: _V_CW_Rim_Power
        second: 3
      data:
        first:
          name: _V_CW_IBL_Intensity
        second: 1
      data:
        first:
          name: _V_CW_IBL_Contrast
        second: 1
      data:
        first:
          name: _V_CW_ReflectStrengthAlphaOffset
        second: 0
      data:
        first:
          name: _V_CW_Fresnel_Bias
        second: 0
      data:
        first:
          name: _V_CW_NormalMapStrength
        second: 1
      data:
        first:
          name: _V_CW_NormalMap_UV_Scale
        second: 1
      data:
        first:
          name: _V_CW_SecondaryNormalMap_UV_Scale
        second: 1
      data:
        first:
          name: _V_CW_Specular_Intensity
        second: 1
      data:
        first:
          name: _V_CW_SpecularOffset
        second: 0
    m_Colors:
      data:
        first:
          name: _EmissionColor
        second: {r: 0, g: 0, b: 0, a: 1}
      data:
        first:
          name: _Color
        second: {r: 1, g: 1, b: 1, a: 1}
      data:
        first:
          name: _V_CW_MainTex_Scroll
        second: {r: 0, g: 0, b: 0, a: 0}
      data:
        first:
          name: _V_CW_Rim_Color
        second: {r: 1, g: 1, b: 1, a: 1}
      data:
        first:
          name: _V_CW_ReflectColor
        second: {r: 1, g: 1, b: 1, a: 1}
