%YAML 1.1
%TAG !u! tag:unity3d.com,2011:
--- !u!21 &2100000
Material:
  serializedVersion: 6
  m_ObjectHideFlags: 0
  m_PrefabParentObject: {fileID: 0}
  m_PrefabInternal: {fileID: 0}
  m_Name: ToonBasic
  m_Shader: {fileID: 4800000, guid: 9aa93289d4310914ab6adfa612cec257, type: 3}
  m_ShaderKeywords: V_CW_FOG _NORMALMAP
  m_LightmapFlags: 5
  m_CustomRenderQueue: 2000
  stringTagMap: {}
  m_SavedProperties:
    serializedVersion: 2
    m_TexEnvs:
      data:
        first:
          name: _MainTex
        second:
          m_Texture: {fileID: 2800000, guid: c0436f2f0b28e4b50971357d7a1f4e01, type: 3}
          m_Scale: {x: 1, y: 1}
          m_Offset: {x: 0, y: 0}
      data:
        first:
          name: _EmissionMap
        second:
          m_Texture: {fileID: 0}
          m_Scale: {x: 1, y: 1}
          m_Offset: {x: 0, y: 0}
      data:
        first:
          name: _V_CW_IBL_Cube
        second:
          m_Texture: {fileID: 0}
          m_Scale: {x: 1, y: 1}
          m_Offset: {x: 0, y: 0}
      data:
        first:
          name: _V_CW_Cube
        second:
          m_Texture: {fileID: 0}
          m_Scale: {x: 1, y: 1}
          m_Offset: {x: 0, y: 0}
      data:
        first:
          name: _V_CW_NormalMap
        second:
          m_Texture: {fileID: 2800000, guid: 585538c7364fe44088c01dc11b2070e5, type: 3}
          m_Scale: {x: 1, y: 1}
          m_Offset: {x: 0, y: 0}
      data:
        first:
          name: _V_CW_SecondaryNormalMap
        second:
          m_Texture: {fileID: 0}
          m_Scale: {x: 1, y: 1}
          m_Offset: {x: 0, y: 0}
      data:
        first:
          name: _V_CW_Specular_Lookup
        second:
          m_Texture: {fileID: 0}
          m_Scale: {x: 1, y: 1}
          m_Offset: {x: 0, y: 0}
      data:
        first:
          name: _V_CW_LightRampTex
        second:
          m_Texture: {fileID: 0}
          m_Scale: {x: 1, y: 1}
          m_Offset: {x: 0, y: 0}
      data:
        first:
          name: _ToonShade
        second:
          m_Texture: {fileID: 8900000, guid: b995d4bd9d11078d11005b9844295342, type: 3}
          m_Scale: {x: 1, y: 1}
          m_Offset: {x: 0, y: 0}
    m_Floats:
      data:
        first:
          name: _Shininess
        second: 0.7
      data:
        first:
          name: V_CW_Label_Tag
        second: 0
      data:
        first:
          name: V_CW_Label_UnityDefaults
        second: 0
      data:
        first:
          name: V_CW_Label_Modes
        second: 0
      data:
        first:
          name: V_CW_Rendering_Mode
        second: 0
      data:
        first:
          name: V_CW_Texture_Mix_Mode
        second: 0
      data:
        first:
          name: V_CW_Label_Albedo
        second: 0
      data:
        first:
          name: _V_CW_Rim_Bias
        second: 0.2
      data:
        first:
          name: _V_CW_Rim_Power
        second: 3
      data:
        first:
          name: _V_CW_IBL_Intensity
        second: 1
      data:
        first:
          name: _V_CW_IBL_Contrast
        second: 1
      data:
        first:
          name: _V_CW_ReflectStrengthAlphaOffset
        second: 0
      data:
        first:
          name: _V_CW_Fresnel_Bias
        second: 0
      data:
        first:
          name: _V_CW_NormalMapStrength
        second: 1
      data:
        first:
          name: _V_CW_NormalMap_UV_Scale
        second: 1
      data:
        first:
          name: _V_CW_SecondaryNormalMap_UV_Scale
        second: 1
      data:
        first:
          name: _V_CW_Specular_Intensity
        second: 1
      data:
        first:
          name: _V_CW_SpecularOffset
        second: 0
      data:
        first:
          name: _Brightness
        second: 5
      data:
        first:
          name: _Dist
        second: 100
      data:
        first:
          name: _Outline
        second: 0.007018868
    m_Colors:
      data:
        first:
          name: _EmissionColor
        second: {r: 1, g: 1, b: 1, a: 1}
      data:
        first:
          name: _Color
        second: {r: 0.625, g: 0.625, b: 0.625, a: 1}
      data:
        first:
          name: _SpecColor
        second: {r: 1, g: 1, b: 1, a: 1}
      data:
        first:
          name: _V_CW_MainTex_Scroll
        second: {r: 0, g: 0, b: 0, a: 0}
      data:
        first:
          name: _V_CW_Rim_Color
        second: {r: 1, g: 1, b: 1, a: 1}
      data:
        first:
          name: _V_CW_ReflectColor
        second: {r: 1, g: 1, b: 1, a: 1}
      data:
        first:
          name: _QOffset
        second: {r: 300, g: 0, b: 0, a: 100}
      data:
        first:
          name: _OutlineColor
        second: {r: 0, g: 0, b: 0, a: 1}
      data:
        first:
          name: _Emission
        second: {r: 0, g: 0, b: 0, a: 0}
--- !u!1002 &2100001
EditorExtensionImpl:
  serializedVersion: 6
